FIP606-24 - Análise exploratória 1
…
Criando subconjuntos com select e filter

A função select() é feita para selecionar colunas, enquanto a função filter() é feita para filtrar linhas. Usando essas funções do pacote dplyr, será criado subconjuntos: o primeiro irá agrupar os dados sobre as fazendas, cultivares e severidade referentes à região de Oromia enquanto que o segundo irá agrupar essas mesmas informações referentes à região de SNNPR.

# Subconjunto Oromia
cr_oromia <- cr |> 
  select(farm, region, cultivar, sev2) |> 
  filter(region == "Oromia")
cr_oromia

# A tibble: 165 × 4
    farm region cultivar  sev2
   <dbl> <chr>  <chr>    <dbl>
 1   286 Oromia Mixture   7.63
 2   287 Oromia Mixture   9.39
 3   288 Oromia Mixture   1.30
 4   289 Oromia Mixture   9.79
 5   290 Oromia Local    18.5 
 6   291 Oromia Mixture  13.2 
 7   292 Oromia Mixture   5.60
 8   293 Oromia Mixture   1.06
 9   294 Oromia Local    17.6 
10   295 Oromia Mixture  15.4 
# ℹ 155 more rows

# Subconjunto SNNPR
cr_pr <- cr |> 
  select(farm, region, cultivar, sev2) |> 
  filter(region == "SNNPR")
cr_pr

# A tibble: 240 × 4
    farm region cultivar  sev2
   <dbl> <chr>  <chr>    <dbl>
 1     1 SNNPR  Local    55.6 
 2     2 SNNPR  Mixture  17.9 
 3     3 SNNPR  Mixture   8.25
 4     4 SNNPR  Local    46.1 
 5     5 SNNPR  Local    12.3 
 6     6 SNNPR  Mixture  19.9 
 7     7 SNNPR  Mixture  11.9 
 8     8 SNNPR  Local    55.6 
 9     9 SNNPR  Local    11.6 
10    10 SNNPR  Mixture  11.4 
# ℹ 230 more rows
…
