FIP606-24 - Análise exploratória 2
…
Visualizando o conjunto de dados, pode-se perceber que eles estão no formato largo. Para que seja possível realizar uma análise exploratória desses dados, é necessário usar a função pivot_longer()do tidyverse para tranformar a tabela no formato longo.

library(tidyverse)

pepper |> 
  pivot_longer(2:4,
               names_to = "epidemic",
               values_to = "inc")

# A tibble: 24 × 3
       t epidemic   inc
   <dbl> <chr>    <dbl>
 1     0 1        0.08 
 2     0 2        0.001
 3     0 3        0.001
 4     7 1        0.13 
 5     7 2        0.01 
 6     7 3        0.001
 7    14 1        0.78 
 8    14 2        0.09 
 9    14 3        0.01 
10    21 1        0.92 
# ℹ 14 more rows
…
Esse conjunto de dados contem as notas das provas (sabatinas) aplicadas em aula durante a disciplina FIP 606. Os dados foram importados do Google Sheet usando o pacote gsheete a função gsheet2tbl().

notas <- gsheet2tbl("https://docs.google.com/spreadsheets/d/1bq2N19DcZdtax2fQW9OHSGMR0X2__Z9T/edit#gid=1092065531")

Criando subconjuntos e tabela de contingência

Para observar a quantidade e a frequência de nota de cada prova, foi separado os dados da prova 1 com os dados da prova 2, usando a função select() selecionando apenas as colunas prova e nota, e a função filter() separando a prova 1 da prova 2. Desse modo foi criado 2 subconjuntos de dados.

notas1 <- notas |> 
  select(prova, nota) |> 
  filter(prova == "1")
notas1

# A tibble: 22 × 2
   prova  nota
   <dbl> <dbl>
 1     1  71.4
 2     1  92.9
 3     1  85.7
 4     1  42.9
 5     1 100  
 6     1  85.7
 7     1 100  
 8     1  57.1
 9     1 100  
10     1  71.4
# ℹ 12 more rows

notas2 <- notas |> 
  select(prova, nota) |> 
  filter(prova == "2")
notas2

# A tibble: 22 × 2
   prova  nota
   <dbl> <dbl>
 1     2  81.2
 2     2  68.8
 3     2  87.5
 4     2  87.5
 5     2  87.5
 6     2 100  
 7     2 100  
 8     2 100  
 9     2 100  
10     2  43.8
# ℹ 12 more rows
…
